Final Project: Philadelphia Incident Report Analysis
…
crime_tab

## # A tibble: 2,237,605 x 14
##    Dc_Dist Psa   Dispatch_Date_Time  Dispatch_Date Dispatch_Time  Hour
##    <chr>   <chr> <dttm>              <date>        <time>        <int>
##  1 18      3     2009-10-02 14:24:00 2009-10-02    14:24            14
##  2 14      1     2009-05-10 00:55:00 2009-05-10    00:55             0
##  3 25      J     2009-08-07 15:40:00 2009-08-07    15:40            15
##  4 35      D     2009-07-19 01:09:00 2009-07-19    01:09             1
##  5 09      R     2009-06-25 00:14:00 2009-06-25    00:14             0
##  6 17      1     2015-04-25 12:50:00 2015-04-25    12:50            12
##  7 23      K     2009-02-10 14:33:00 2009-02-10    14:33            14
##  8 77      A     2009-04-02 18:30:00 2009-04-02    18:30            18
##  9 35      D     2009-03-18 01:14:00 2009-03-18    01:14             1
## 10 23      L     2009-06-14 20:30:00 2009-06-14    20:30            20
## # ... with 2,237,595 more rows, and 8 more variables: Dc_Key <dbl>,
## #   Location_Block <chr>, UCR_General <int>, Text_General_Code <chr>,
## #   Police_Districts <int>, Month <chr>, Lon <dbl>, Lat <dbl>

Here we will clean up the data. This involves deleting any entries that are missing important information as well as manipulating the fields into useful ones. Here we will separate the month and day in order to use them easier. Now we will be able to start our analysis of average crimes per month and day with a clean dataset. The year and month are made to be factors so that they are not seen as integers and kept in their own distinct values.

crime_tab_tidy<- crime_tab %>%
  na.omit() %>%
  separate(col = Month, into = c("Year", "Month"), sep = "-")

crime_tab_tidy$Year <- as.factor(crime_tab_tidy$Year) 
crime_tab_tidy$Month <- as.factor(crime_tab_tidy$Month)
crime_tab_tidy

## # A tibble: 2,217,021 x 15
##    Dc_Dist Psa   Dispatch_Date_Time  Dispatch_Date Dispatch_Time  Hour
##    <chr>   <chr> <dttm>              <date>        <time>        <int>
##  1 35      D     2009-07-19 01:09:00 2009-07-19    01:09             1
##  2 09      R     2009-06-25 00:14:00 2009-06-25    00:14             0
##  3 17      1     2015-04-25 12:50:00 2015-04-25    12:50            12
##  4 23      K     2009-02-10 14:33:00 2009-02-10    14:33            14
##  5 22      3     2015-10-06 18:18:00 2015-10-06    18:18            18
##  6 22      3     2015-10-09 00:49:00 2015-10-09    00:49             0
##  7 02      1     2015-11-30 08:39:00 2015-11-30    08:39             8
##  8 24      2     2015-04-11 17:38:00 2015-04-11    17:38            17
##  9 22      4     2015-12-10 12:29:00 2015-12-10    12:29            12
## 10 15      I     2009-01-11 12:30:00 2009-01-11    12:30            12
## # ... with 2,217,011 more rows, and 9 more variables: Dc_Key <dbl>,
## #   Location_Block <chr>, UCR_General <int>, Text_General_Code <chr>,
## #   Police_Districts <int>, Year <fct>, Month <fct>, Lon <dbl>, Lat <dbl>
…
We will now look at the total number of incident for each day. First we will extract the day from the Date field. We see below after extracting the day from the date, we have a new field that has the day value for each incident reported in the crime_tab_tidy table. Then we will group the dataset by the Day and get the count of the number of incidents for that day. This is all graphed using the ggplot function in a line graph. We will then see that the days with the most incidents are the 19th and 21st.

crime_tab_tidy$Day <- day(crime_tab_tidy$Dispatch_Date)
crime_tab_tidy

## # A tibble: 2,217,021 x 16
##    Dc_Dist Psa   Dispatch_Date_Time  Dispatch_Date Dispatch_Time  Hour
##    <chr>   <chr> <dttm>              <date>        <time>        <int>
##  1 35      D     2009-07-19 01:09:00 2009-07-19    01:09             1
##  2 09      R     2009-06-25 00:14:00 2009-06-25    00:14             0
##  3 17      1     2015-04-25 12:50:00 2015-04-25    12:50            12
##  4 23      K     2009-02-10 14:33:00 2009-02-10    14:33            14
##  5 22      3     2015-10-06 18:18:00 2015-10-06    18:18            18
##  6 22      3     2015-10-09 00:49:00 2015-10-09    00:49             0
##  7 02      1     2015-11-30 08:39:00 2015-11-30    08:39             8
##  8 24      2     2015-04-11 17:38:00 2015-04-11    17:38            17
##  9 22      4     2015-12-10 12:29:00 2015-12-10    12:29            12
## 10 15      I     2009-01-11 12:30:00 2009-01-11    12:30            12
## # ... with 2,217,011 more rows, and 10 more variables: Dc_Key <dbl>,
## #   Location_Block <chr>, UCR_General <int>, Text_General_Code <chr>,
## #   Police_Districts <int>, Year <fct>, Month <fct>, Lon <dbl>, Lat <dbl>,
## #   Day <int>

day <- crime_tab_tidy %>% 
  group_by(Day) %>% 
  dplyr::summarize(count = n())
day

## # A tibble: 31 x 2
##      Day count
##    <int> <int>
##  1     1 73333
##  2     2 73140
##  3     3 73091
##  4     4 71866
##  5     5 73475
##  6     6 72718
##  7     7 73547
##  8     8 73512
##  9     9 73207
## 10    10 73702
## # ... with 21 more rows
…
Here we will plot the relationship between number of incidents for month and day. First we group the data by month and day using the group_by function, then we summarize the data to get the total number of incidents for each month and day combo. This can be seen in the month_and_day table. Then we plot the data in this table using ggplot to make a line graph. Ggplot has a color option in the aesthetic section, this allows us to see a different color for each month. From the resulting plot, it is hard to tell if there is any major correlation between the number of incidents by the month and day, it appears that there is none. Also due to each month not having 31 days, the line graph appears to be very varied in the total incidents at the end of the moth.

month_and_day <- crime_tab_tidy %>% 
  group_by(Month, Day) %>% 
  dplyr::summarize(count = n())
month_and_day

## # A tibble: 366 x 3
## # Groups:   Month [?]
##    Month   Day count
##    <fct> <int> <int>
##  1 01        1  5597
##  2 01        2  5884
##  3 01        3  5512
##  4 01        4  5771
##  5 01        5  5845
##  6 01        6  5913
##  7 01        7  5754
##  8 01        8  5666
##  9 01        9  5879
## 10 01       10  5762
## # ... with 356 more rows
…
Now we will look at the indicdent each month per year. First we use the tidy dataset again and group it by year and month, then we get the total count of incidents for each. We then have to convert the month to an integer instead of a factor to plot our data in a line graph. We use scale_x_continuous to relabel the x-axis, because the months are integers, the x-axis is labeled automatically and does not show each month separately. Here we see a high concentration of incidents in 2006-2008 around May through August. This shows that crimes are more likely to occur in the summer months when it is warm out.

year_and_month <- crime_tab_tidy %>% 
  group_by(Year, Month) %>% 
  dplyr::summarize(count = n())
year_and_month

## # A tibble: 135 x 3
## # Groups:   Year [?]
##    Year  Month count
##    <fct> <fct> <int>
##  1 2006  01    19130
##  2 2006  02    15715
##  3 2006  03    18383
##  4 2006  04    18731
##  5 2006  05    19843
##  6 2006  06    20132
##  7 2006  07    20953
##  8 2006  08    21766
##  9 2006  09    19461
## 10 2006  10    20495
## # ... with 125 more rows
…
After looking at the Month, Day and Year fields, we see only little correlation with those fields. We have seen that crime has decreased over the years and also that there is a correlation between the frequency of incidents and the month of the year. We now will look to see if there is a correlation between the time of the crime and the years. First we group the tidy dataset by Year and hour and count the number of incidents. Then we use ggplot to plot the line graph. We use scale_x_continuous to label the x-axis with the labels 0 to 23 for each hour. Because Hour is an integer and not a factor, the a-axis would be labelled automatically and would not show each individual hour and make the graph hard to read. Here we see that almost every year has a similar distribution of crime over the hours. The majority of crimes occur around 3:pm through 3:00 am. Beacuse the data for 2017 is not complete, the number of incidents is much lower and does not fit into the trend.

hour_and_year <- crime_tab_tidy %>% 
  group_by(Year , Hour) %>%
  dplyr::summarize(count = n())
hour_and_year

## # A tibble: 288 x 3
## # Groups:   Year [?]
##    Year   Hour count
##    <fct> <int> <int>
##  1 2006      0 15599
##  2 2006      1 13506
##  3 2006      2  8303
##  4 2006      3  5605
##  5 2006      4  3617
##  6 2006      5  2695
##  7 2006      6  2813
##  8 2006      7  3671
##  9 2006      8  8058
## 10 2006      9  9769
## # ... with 278 more rows
…
Now, we will look at the data and get the locations with the most crime incidents reported. The dataset is grouped by the block where the incedent occurred, has each locations number of incidents counted, then the data is arranged by descending count. We group by block, latitude, and longtitude so we can place markers at these locations in our next step. We can see below that the 4600 Block of East Roosevelt has the most crime incidents.

top_50 <- crime_tab_tidy %>% 
  group_by(Location_Block, Lat, Lon) %>% 
  summarize(count = n()) %>% 
  arrange(desc(count))
top_50 <- head(top_50, 50)
top_50

## # A tibble: 50 x 4
## # Groups:   Location_Block, Lat [50]
##    Location_Block                Lat   Lon count
##    <chr>                       <dbl> <dbl> <int>
##  1 4600 BLOCK E ROOSEVELT BLVD  40.0 -75.1  3582
##  2 5200 BLOCK FRANKFORD AVE     40.0 -75.1  3220
##  3 1000 BLOCK MARKET ST         40.0 -75.2  2997
##  4 1300 BLOCK MARKET ST         40.0 -75.2  2513
##  5 1500 BLOCK MARKET ST         40.0 -75.2  1834
##  6 2700 BLOCK KENSINGTON AVE    40.0 -75.1  1561
##  7 2800 BLOCK KENSINGTON AVE    40.0 -75.1  1469
##  8 2700 BLOCK CASTOR AVE        40.0 -75.1  1455
##  9 3400 BLOCK N BROAD ST        40.0 -75.2  1436
## 10 0 BLOCK MIFFLIN ST           39.9 -75.1  1333
## # ... with 40 more rows
…
